Numbers 25:19
Numbers 26:66
Job 25:7
Job 25:8
Job 25:9
Job 25:10
Job 25:11
Job 25:12
Job 25:13
Job 25:14
Job 27:24
Psalms 50:24
Psalms 101:9
Song of Solomon 4:17
Wisdom 9:19
Sirach 5:16
Sirach 5:17
Sirach 34:27
Sirach 34:28
Sirach 34:29
Sirach 34:30
Sirach 34:31
Sirach 35:25
Sirach 35:26
Sirach 36:28
Sirach 36:29
Sirach 36:30
Sirach 36:31
Sirach 43:34
Sirach 43:35
Isaiah 9:21
Daniel 14:43
Zechariah 4:15
Zechariah 4:16
Acts 10:49
Acts 19:41
